{
  "project_info": {
    "project_number": "229422089010",
    "firebase_url": "https://workshopamcom.firebaseio.com",
    "project_id": "workshopamcom",
    "storage_bucket": "workshopamcom.appspot.com"
  },
  "client": [
    {
      "client_info": {
        "mobilesdk_app_id": "1:229422089010:android:ed693513e4bf0408",
        "android_client_info": {
          "package_name": "br.com.luizlanza.workshopamcom"
        }
      },
      "oauth_client": [
        {
          "client_id": "229422089010-da1dssqvj751s5ect5ale22iaipb0ahl.apps.googleusercontent.com",
          "client_type": 1,
          "android_info": {
            "package_name": "br.com.luizlanza.workshopamcom",
            "certificate_hash": "7271bf8e005f7ae96f10c6f4c8403e02b3d36d54"
          }
        },
        {
          "client_id": "229422089010-utpicr79d1a06hp1o8mo4caincocrb7m.apps.googleusercontent.com",
          "client_type": 3
        }
      ],
      "api_key": [
        {
          "current_key": "AIzaSyC08VT95RoFHf0XOl_2wYyUX5bd4Rbp0FU"
        }
      ],
      "services": {
        "analytics_service": {
          "status": 1
        },
        "appinvite_service": {
          "status": 2,
          "other_platform_oauth_client": [
            {
              "client_id": "229422089010-utpicr79d1a06hp1o8mo4caincocrb7m.apps.googleusercontent.com",
              "client_type": 3
            }
          ]
        },
        "ads_service": {
          "status": 2
        }
      }
    }
  ],
  "configuration_version": "1"
}